{
  "defaultConnection": "default",
  "connections": {
    "default": {
      "connector": "mongoose",
      "settings": {
        "host": "${process.env.DATABASE_HOST || '127.0.0.1'}",
        "port": "${process.env.DATABASE_PORT || 27017}",
        "database": "${process.env.DATABASE_NAME || 'strapi'}",
        "username": "${process.env.DATABASE_USERNAME || ''}",
        "password": "${process.env.DATABASE_PASSWORD || ''}"
      },
      "options": {
        "pool":{ "min":0, "max":15, "idleTimeoutMillis":30000, "createTimeoutMillis":30000, "acquireTimeoutMillis":30000 },
        "authenticationDatabase": "admin",
        "ssl": true
      }
    }
  }
}
